4 Exploratory Data Analysis | Introduction to Data Analysis in R
…
Note: To avoid warnings and other messages showing up in your rendered R Markdown document, you can set messae = FALSE and warning = FALSE in your code chunk arguments.

4.0.1 The penguins data

For this lesson, we are going to use the Palmer Penguins data set (which is loaded with the {palmerpenguins} package). This data was collected and made available by Dr. Kristen Gorman and the Palmer Station, Antarctica LTER, a member of the Long Term Ecological Research Network.

Since this is a data set from the data package {palmerpenguins}, we can use the data() function to load it into our session:

data("penguins")

You should now see it in the Environment pane. Print it to the console to see a snapshot of the data:

penguins

## # A tibble: 344 × 8
##    species island    bill_length_mm bill_depth_mm flipper_length_mm body_mass_g
##    <fct>   <fct>              <dbl>         <dbl>             <int>       <int>
##  1 Adelie  Torgersen           39.1          18.7               181        3750
##  2 Adelie  Torgersen           39.5          17.4               186        3800
##  3 Adelie  Torgersen           40.3          18                 195        3250
##  4 Adelie  Torgersen           NA            NA                  NA          NA
##  5 Adelie  Torgersen           36.7          19.3               193        3450
##  6 Adelie  Torgersen           39.3          20.6               190        3650
##  7 Adelie  Torgersen           38.9          17.8               181        3625
##  8 Adelie  Torgersen           39.2          19.6               195        4675
##  9 Adelie  Torgersen           34.1          18.1               193        3475
## 10 Adelie  Torgersen           42            20.2               190        4250
## # ℹ 334 more rows
## # ℹ 2 more variables: sex <fct>, year <int>
…
